{
  "restartable": "rs",
  "ignore": [
    ".git",
    "node_modules/**",
    "build/**",
    "**/_*"
  ],
  "verbose": true,
  "execMap": {
    "js": "node --harmony"
  },
  "watch": [
    "src/",
    "spec/",
    "gulpfile.js",
    ".eslintrc.js"
  ],
  "env": {
    "NODE_ENV": "development"
  },
  "ext": "js json"
}